<?xml version="1.0" encoding="utf-8"?>
<!-- Generator: Adobe Illustrator 17.0.0, SVG Export Plug-In . SVG Version: 6.00 Build 0)  -->
<!DOCTYPE svg PUBLIC "-//W3C//DTD SVG 1.1//EN" "http://www.w3.org/Graphics/SVG/1.1/DTD/svg11.dtd">
<svg version="1.1" xmlns="http://www.w3.org/2000/svg" xmlns:xlink="http://www.w3.org/1999/xlink" x="0px" y="0px" width="326px"
	 height="326px" viewBox="0 0 326 326" enable-background="new 0 0 326 326" xml:space="preserve">
<symbol  id="Logo" viewBox="-91.237 -25.205 315.209 47.694">
	<g>
		<g>
			<g>
				<path fill="#4D4D4D" d="M-38.63-3.693h-7.612v4.468h20.191v-4.468h-7.612V-24.67h-4.967V-3.693z"/>
			</g>
			<g>
				<path fill="#4D4D4D" d="M-12.176-24.67v11.543c0,2.393-0.893,3.431-2.894,3.431c-2.537,0-4.002-2.145-4.002-4.468V-24.67h-4.718
					V0.989h4.718v-9.22c1.286,1.787,3.323,2.68,5.36,2.68c4.11,0,6.29-2.466,6.29-6.754V-24.67H-12.176z"/>
			</g>
			<g>
				<path fill="#4D4D4D" d="M12.245-16.665H-0.442c0.071-2.751,1.465-4.788,4.253-4.788c1.894,0,3.144,0.714,3.538,2.465h4.574
					c-0.5-4.145-3.86-6.182-8.113-6.182c-5.86,0-9.006,3.968-9.006,9.757c0,5.824,3.323,9.863,8.97,9.863
					c5.54,0,8.505-3.895,8.505-9.506C12.28-15.379,12.245-16.129,12.245-16.665z M3.703-9.195c-2.68,0-4.037-1.931-4.109-4.218h8.04
					C7.563-10.839,6.42-9.195,3.703-9.195z"/>
			</g>
			<g>
				<path fill="#4D4D4D" d="M33.772-25.205c-7.718,0-11.043,5.824-11.043,13.222c0,7.254,3.324,13.294,11.079,13.294
					c5.753,0,9.326-3.789,10.042-8.935h-5.04c-0.356,2.788-1.964,4.539-5.002,4.539c-4.574,0-5.968-4.181-5.968-8.898
					c0-4.611,1.465-8.898,5.968-8.898c3.038,0,4.717,1.787,5.002,4.646h5.219C43.564-21.489,39.669-25.205,33.772-25.205z"/>
			</g>
			<g>
				<path fill="#4D4D4D" d="M58.763-24.67l-0.751,2.324c-1.144-1.573-3.073-2.788-5.824-2.788c-3.895,0-6.469,2.216-6.469,5.681
					c0,6.039,6.432,6.076,11.971,6.361v1.037c0,2.001-1.036,2.965-3.18,2.965c-2.001,0-3.18-0.857-3.394-2.466
					c-1.465,0.073-2.967,0.144-4.432,0.215c0.466,4.037,3.502,5.789,7.934,5.789c5.038,0,7.647-2.324,7.647-7.47v-11.65H58.763z
					 M57.656-16.378c-4.825-0.215-7.254-0.429-7.254-2.932c0-1.321,1.072-2.143,2.537-2.143c2.715,0,4.717,1.429,4.717,4.145
					V-16.378z"/>
			</g>
			<g>
				<path fill="#4D4D4D" d="M74.57-10.125c-2.751,0-4.467-1.894-4.467-4.467V-24.67H65.35v18.619h2.895l1.608-2.716
					c1.072,2.073,3.074,3.003,5.146,3.003c0.714,0,1.251-0.073,1.715-0.144c-0.106-1.465-0.214-2.965-0.322-4.43
					C75.857-10.196,75.249-10.125,74.57-10.125z"/>
			</g>
			<g>
				<path fill="#4D4D4D" d="M88.693-25.17c-2.037,0-4.002,0.679-5.361,2.537l-1.072-2.037h-3.431V0.989h4.718v-8.863
					c1.144,1.465,3.002,2.324,5.289,2.324c5.181,0,7.826-4.074,7.826-9.828C96.661-20.918,93.802-25.17,88.693-25.17z M87.692-9.446
					c-3.18,0-4.253-2.502-4.253-5.683v-0.285c0-3.61,1.178-5.862,4.216-5.862c2.859,0,4.11,2.537,4.11,5.897
					C91.765-11.912,90.551-9.446,87.692-9.446z"/>
			</g>
			<g>
				<path fill="#4D4D4D" d="M107.716-25.17c-5.895,0-9.041,3.895-9.041,9.828c0,5.897,3.359,9.792,9.041,9.792
					c5.897,0,9.077-4.002,9.077-9.792C116.793-21.239,113.47-25.17,107.716-25.17z M107.716-9.482c-3.108,0-4.18-2.645-4.18-5.86
					c0-3.323,1-5.897,4.18-5.897c3.253,0,4.218,2.716,4.218,5.897C111.934-12.091,110.898-9.482,107.716-9.482z"/>
			</g>
			<g>
				<path fill="#4D4D4D" d="M119.054-6.051h3.18l1.288-2.501c1.286,2.108,3.466,3.036,5.647,3.036c4.109,0,6.253-2.465,6.253-6.789
					V-24.67h-4.753v11.543c0,2.393-0.893,3.431-2.894,3.431c-2.895,0-4.002-2.859-4.002-5.575v-9.399h-4.718V-6.051z"/>
			</g>
			<g>
				<path fill="#4D4D4D" d="M153.163-3.693h-7.612v4.468h20.191v-4.468h-7.612V-24.67h-4.967V-3.693z"/>
			</g>
			<g>
				<path fill="#4D4D4D" d="M174.901-10.125c-2.753,0-4.468-1.894-4.468-4.467V-24.67h-4.753v18.619h2.895l1.608-2.716
					c1.072,2.073,3.074,3.003,5.146,3.003c0.716,0,1.251-0.073,1.715-0.144c-0.106-1.465-0.214-2.965-0.322-4.43
					C176.187-10.196,175.579-10.125,174.901-10.125z"/>
			</g>
			<g>
				<path fill="#4D4D4D" d="M195.277-16.665H182.59c0.071-2.751,1.465-4.788,4.253-4.788c1.894,0,3.144,0.714,3.538,2.465h4.574
					c-0.501-4.145-3.86-6.182-8.113-6.182c-5.86,0-9.006,3.968-9.006,9.757c0,5.824,3.323,9.863,8.97,9.863
					c5.54,0,8.505-3.895,8.505-9.506C195.312-15.379,195.277-16.129,195.277-16.665z M186.735-9.195
					c-2.68,0-4.037-1.931-4.109-4.218h8.04C190.595-10.839,189.452-9.195,186.735-9.195z"/>
			</g>
			<g>
				<path fill="#4D4D4D" d="M214.871-16.665h-12.687c0.071-2.751,1.465-4.788,4.253-4.788c1.894,0,3.144,0.714,3.538,2.465h4.574
					c-0.5-4.145-3.86-6.182-8.113-6.182c-5.86,0-9.006,3.968-9.006,9.757c0,5.824,3.324,9.863,8.97,9.863
					c5.54,0,8.505-3.895,8.505-9.506C214.906-15.379,214.871-16.129,214.871-16.665z M206.329-9.195
					c-2.68,0-4.037-1.931-4.109-4.218h8.04C210.189-10.839,209.045-9.195,206.329-9.195z"/>
			</g>
		</g>
		<g>
			<path fill="#97BD40" d="M-73.052-13.882c-10.027,0-18.185,8.158-18.185,18.185s8.158,18.186,18.185,18.186
				s18.184-8.158,18.184-18.186S-63.024-13.882-73.052-13.882z M-73.052,18.271c-7.703,0-13.969-6.266-13.969-13.968
				s6.266-13.968,13.969-13.968c7.702,0,13.968,6.266,13.968,13.968S-65.35,18.271-73.052,18.271z"/>
		</g>
		<g>
			<polygon fill="#97BD40" points="-70.944,-24.519 -75.16,-24.519 -75.16,2.838 -70.944,2.838 			"/>
		</g>
		<g>
			<polygon fill="#97BD40" points="-71.675,-8.25 -73.783,-6.144 -66.081,1.559 -63.973,-0.547 			"/>
		</g>
		<g>
			<path fill="#4D4D4D" d="M223.973-21.254c0-1.854-1.503-3.357-3.357-3.357c-1.854,0-3.357,1.503-3.357,3.357
				s1.503,3.357,3.357,3.357C222.47-17.898,223.973-19.4,223.973-21.254z"/>
		</g>
	</g>
</symbol>
<g id="Guides">
</g>
<g id="Browser">
</g>
<g id="Home">
	<g>
		<circle opacity="0.5" fill="#477907" cx="163" cy="163" r="163"/>
		<g>
			<g>
				<g>
					<circle fill="#598C10" cx="249.135" cy="174.785" r="35.707"/>
					<circle fill="none" stroke="#FFFFFF" stroke-width="5" stroke-miterlimit="10" cx="249.135" cy="174.785" r="35.707"/>
				</g>
				<g>
					
						<line fill="none" stroke="#FFFFFF" stroke-width="5" stroke-linejoin="round" stroke-miterlimit="10" x1="249.5" y1="233" x2="249.5" y2="178"/>
				</g>
				<g>
					
						<line fill="none" stroke="#FFFFFF" stroke-width="5" stroke-linejoin="round" stroke-miterlimit="10" x1="265.926" y1="181.357" x2="249.784" y2="194.263"/>
				</g>
				<g>
					<path fill="none" stroke="#FFFFFF" stroke-width="5" stroke-miterlimit="10" d="M68.817,160.903l3.364-46.849
						c0.104-1.448,1.377-2.633,2.828-2.633h8.509c1.452,0,2.725,1.185,2.828,2.633l3.364,46.849"/>
				</g>
				<g>
					<path fill="none" stroke="#FFFFFF" stroke-width="5" stroke-miterlimit="10" d="M95.917,160.903l3.363-46.644
						c0.104-1.448,1.378-2.633,2.829-2.633h8.509c1.452,0,2.725,1.185,2.829,2.633l3.363,46.644"/>
				</g>
				<g>
					<path fill="none" stroke="#FFFFFF" stroke-width="5" stroke-miterlimit="10" d="M170.5,218.861
						c0,1.458-1.182,2.639-2.639,2.639H57.139c-1.458,0-2.639-1.182-2.639-2.639v-54.721c0-1.458,1.182-2.639,2.639-2.639h110.721
						c1.458,0,2.639,1.182,2.639,2.639V218.861z"/>
				</g>
				<g>
					<g>
						
							<line fill="none" stroke="#FFFFFF" stroke-width="5" stroke-linecap="round" stroke-linejoin="round" x1="80.685" y1="103.098" x2="86.284" y2="97.499"/>
						
							<line fill="none" stroke="#FFFFFF" stroke-width="5" stroke-linecap="round" stroke-linejoin="round" x1="101.145" y1="82.638" x2="106.744" y2="77.039"/>
					</g>
				</g>
				<g>
					<g>
						
							<line fill="none" stroke="#FFFFFF" stroke-width="5" stroke-linecap="round" stroke-linejoin="round" x1="106.364" y1="101.333" x2="111.963" y2="95.734"/>
						
							<line fill="none" stroke="#FFFFFF" stroke-width="5" stroke-linecap="round" stroke-linejoin="round" x1="126.824" y1="80.874" x2="132.423" y2="75.275"/>
					</g>
				</g>
				<g>
					<g>
						
							<line fill="none" stroke="#FFFFFF" stroke-width="5" stroke-linecap="round" stroke-linejoin="round" x1="232.931" y1="114.363" x2="238.531" y2="108.764"/>
						
							<line fill="none" stroke="#FFFFFF" stroke-width="5" stroke-linecap="round" stroke-linejoin="round" x1="253.391" y1="93.903" x2="258.99" y2="88.304"/>
					</g>
				</g>
				<g>
					<g>
						
							<line fill="none" stroke="#FFFFFF" stroke-width="5" stroke-linecap="round" stroke-linejoin="round" x1="189.427" y1="96.116" x2="189.427" y2="88.198"/>
						
							<line fill="none" stroke="#FFFFFF" stroke-width="5" stroke-linecap="round" stroke-linejoin="round" x1="189.427" y1="65.73" x2="189.427" y2="57.812"/>
					</g>
				</g>
				<g>
					<g>
						
							<line fill="none" stroke="#FFFFFF" stroke-width="5" stroke-linecap="round" stroke-linejoin="round" x1="212.557" y1="99.74" x2="215.729" y2="92.485"/>
						
							<line fill="none" stroke="#FFFFFF" stroke-width="5" stroke-linecap="round" stroke-linejoin="round" stroke-dasharray="8.0958,8.0958" x1="218.972" y1="85.067" x2="223.836" y2="73.94"/>
						
							<line fill="none" stroke="#FFFFFF" stroke-width="5" stroke-linecap="round" stroke-linejoin="round" x1="225.458" y1="70.231" x2="228.629" y2="62.976"/>
					</g>
				</g>
				<g>
					<circle fill="#598C10" cx="189.427" cy="156.75" r="46.007"/>
					<circle fill="none" stroke="#FFFFFF" stroke-width="5" stroke-miterlimit="10" cx="189.427" cy="156.75" r="46.007"/>
				</g>
				<g>
					
						<line fill="none" stroke="#FFFFFF" stroke-width="5" stroke-linejoin="round" stroke-miterlimit="10" x1="189.5" y1="233" x2="189.5" y2="161"/>
				</g>
				<g>
					
						<line fill="none" stroke="#FFFFFF" stroke-width="5" stroke-linejoin="round" stroke-miterlimit="10" x1="168.63" y1="165.217" x2="189.427" y2="181.847"/>
				</g>
				<g>
					<path fill="#FFFFFF" d="M89,206.361c0,1.458-1.182,2.639-2.639,2.639H70.639c-1.458,0-2.639-1.182-2.639-2.639v-5.721
						c0-1.458,1.182-2.639,2.639-2.639h15.721c1.458,0,2.639,1.182,2.639,2.639V206.361z"/>
				</g>
				<g>
					<path fill="#FFFFFF" d="M115,206.361c0,1.458-1.182,2.639-2.639,2.639H96.639c-1.458,0-2.639-1.182-2.639-2.639v-5.721
						c0-1.458,1.182-2.639,2.639-2.639h15.721c1.458,0,2.639,1.182,2.639,2.639V206.361z"/>
				</g>
				<g>
					<path fill="#FFFFFF" d="M147,218.361c0,1.458-1.182,2.639-2.639,2.639h-15.721c-1.458,0-2.639-1.182-2.639-2.639v-20.721
						c0-1.458,1.182-2.639,2.639-2.639h15.721c1.458,0,2.639,1.182,2.639,2.639V218.361z"/>
				</g>
			</g>
		</g>
	</g>
</g>
<g id="Landowners">
</g>
<g id="Principle">
</g>
<g id="Eligibility">
</g>
<g id="State2" display="none">
</g>
<g id="State3" display="none">
</g>
</svg>
