<?xml version="1.0" encoding="utf-8"?>
<!-- Generator: Adobe Illustrator 17.0.0, SVG Export Plug-In . SVG Version: 6.00 Build 0)  -->
<!DOCTYPE svg PUBLIC "-//W3C//DTD SVG 1.1//EN" "http://www.w3.org/Graphics/SVG/1.1/DTD/svg11.dtd">
<svg version="1.1" xmlns="http://www.w3.org/2000/svg" xmlns:xlink="http://www.w3.org/1999/xlink" x="0px" y="0px" width="221px"
	 height="205px" viewBox="0 0 221 205" enable-background="new 0 0 221 205" xml:space="preserve">
<symbol  id="Logo" viewBox="-91.237 -25.205 315.209 47.694">
	<g>
		<g>
			<g>
				<path fill="#4D4D4D" d="M-38.63-3.693h-7.612v4.468h20.191v-4.468h-7.612V-24.67h-4.967V-3.693z"/>
			</g>
			<g>
				<path fill="#4D4D4D" d="M-12.176-24.67v11.543c0,2.393-0.893,3.431-2.894,3.431c-2.537,0-4.002-2.145-4.002-4.468V-24.67h-4.718
					V0.989h4.718v-9.22c1.286,1.787,3.323,2.68,5.36,2.68c4.11,0,6.29-2.466,6.29-6.754V-24.67H-12.176z"/>
			</g>
			<g>
				<path fill="#4D4D4D" d="M12.245-16.665H-0.442c0.071-2.751,1.465-4.788,4.253-4.788c1.894,0,3.144,0.714,3.538,2.465h4.574
					c-0.5-4.145-3.86-6.182-8.113-6.182c-5.86,0-9.006,3.968-9.006,9.757c0,5.824,3.323,9.863,8.97,9.863
					c5.54,0,8.505-3.895,8.505-9.506C12.28-15.379,12.245-16.129,12.245-16.665z M3.703-9.195c-2.68,0-4.037-1.931-4.109-4.218h8.04
					C7.563-10.839,6.42-9.195,3.703-9.195z"/>
			</g>
			<g>
				<path fill="#4D4D4D" d="M33.772-25.205c-7.718,0-11.043,5.824-11.043,13.222c0,7.254,3.324,13.294,11.079,13.294
					c5.753,0,9.326-3.789,10.042-8.935h-5.04c-0.356,2.788-1.964,4.539-5.002,4.539c-4.574,0-5.968-4.181-5.968-8.898
					c0-4.611,1.465-8.898,5.968-8.898c3.038,0,4.717,1.787,5.002,4.646h5.219C43.564-21.489,39.669-25.205,33.772-25.205z"/>
			</g>
			<g>
				<path fill="#4D4D4D" d="M58.763-24.67l-0.751,2.324c-1.144-1.573-3.073-2.788-5.824-2.788c-3.895,0-6.469,2.216-6.469,5.681
					c0,6.039,6.432,6.076,11.971,6.361v1.037c0,2.001-1.036,2.965-3.18,2.965c-2.001,0-3.18-0.857-3.394-2.466
					c-1.465,0.073-2.967,0.144-4.432,0.215c0.466,4.037,3.502,5.789,7.934,5.789c5.038,0,7.647-2.324,7.647-7.47v-11.65H58.763z
					 M57.656-16.378c-4.825-0.215-7.254-0.429-7.254-2.932c0-1.321,1.072-2.143,2.537-2.143c2.715,0,4.717,1.429,4.717,4.145
					V-16.378z"/>
			</g>
			<g>
				<path fill="#4D4D4D" d="M74.57-10.125c-2.751,0-4.467-1.894-4.467-4.467V-24.67H65.35v18.619h2.895l1.608-2.716
					c1.072,2.073,3.074,3.003,5.146,3.003c0.714,0,1.251-0.073,1.715-0.144c-0.106-1.465-0.214-2.965-0.322-4.43
					C75.857-10.196,75.249-10.125,74.57-10.125z"/>
			</g>
			<g>
				<path fill="#4D4D4D" d="M88.693-25.17c-2.037,0-4.002,0.679-5.361,2.537l-1.072-2.037h-3.431V0.989h4.718v-8.863
					c1.144,1.465,3.002,2.324,5.289,2.324c5.181,0,7.826-4.074,7.826-9.828C96.661-20.918,93.802-25.17,88.693-25.17z M87.692-9.446
					c-3.18,0-4.253-2.502-4.253-5.683v-0.285c0-3.61,1.178-5.862,4.216-5.862c2.859,0,4.11,2.537,4.11,5.897
					C91.765-11.912,90.551-9.446,87.692-9.446z"/>
			</g>
			<g>
				<path fill="#4D4D4D" d="M107.716-25.17c-5.895,0-9.041,3.895-9.041,9.828c0,5.897,3.359,9.792,9.041,9.792
					c5.897,0,9.077-4.002,9.077-9.792C116.793-21.239,113.47-25.17,107.716-25.17z M107.716-9.482c-3.108,0-4.18-2.645-4.18-5.86
					c0-3.323,1-5.897,4.18-5.897c3.253,0,4.218,2.716,4.218,5.897C111.934-12.091,110.898-9.482,107.716-9.482z"/>
			</g>
			<g>
				<path fill="#4D4D4D" d="M119.054-6.051h3.18l1.288-2.501c1.286,2.108,3.466,3.036,5.647,3.036c4.109,0,6.253-2.465,6.253-6.789
					V-24.67h-4.753v11.543c0,2.393-0.893,3.431-2.894,3.431c-2.895,0-4.002-2.859-4.002-5.575v-9.399h-4.718V-6.051z"/>
			</g>
			<g>
				<path fill="#4D4D4D" d="M153.163-3.693h-7.612v4.468h20.191v-4.468h-7.612V-24.67h-4.967V-3.693z"/>
			</g>
			<g>
				<path fill="#4D4D4D" d="M174.901-10.125c-2.753,0-4.468-1.894-4.468-4.467V-24.67h-4.753v18.619h2.895l1.608-2.716
					c1.072,2.073,3.074,3.003,5.146,3.003c0.716,0,1.251-0.073,1.715-0.144c-0.106-1.465-0.214-2.965-0.322-4.43
					C176.187-10.196,175.579-10.125,174.901-10.125z"/>
			</g>
			<g>
				<path fill="#4D4D4D" d="M195.277-16.665H182.59c0.071-2.751,1.465-4.788,4.253-4.788c1.894,0,3.144,0.714,3.538,2.465h4.574
					c-0.501-4.145-3.86-6.182-8.113-6.182c-5.86,0-9.006,3.968-9.006,9.757c0,5.824,3.323,9.863,8.97,9.863
					c5.54,0,8.505-3.895,8.505-9.506C195.312-15.379,195.277-16.129,195.277-16.665z M186.735-9.195
					c-2.68,0-4.037-1.931-4.109-4.218h8.04C190.595-10.839,189.452-9.195,186.735-9.195z"/>
			</g>
			<g>
				<path fill="#4D4D4D" d="M214.871-16.665h-12.687c0.071-2.751,1.465-4.788,4.253-4.788c1.894,0,3.144,0.714,3.538,2.465h4.574
					c-0.5-4.145-3.86-6.182-8.113-6.182c-5.86,0-9.006,3.968-9.006,9.757c0,5.824,3.324,9.863,8.97,9.863
					c5.54,0,8.505-3.895,8.505-9.506C214.906-15.379,214.871-16.129,214.871-16.665z M206.329-9.195
					c-2.68,0-4.037-1.931-4.109-4.218h8.04C210.189-10.839,209.045-9.195,206.329-9.195z"/>
			</g>
		</g>
		<g>
			<path fill="#97BD40" d="M-73.052-13.882c-10.027,0-18.185,8.158-18.185,18.185s8.158,18.186,18.185,18.186
				s18.184-8.158,18.184-18.186S-63.024-13.882-73.052-13.882z M-73.052,18.271c-7.703,0-13.969-6.266-13.969-13.968
				s6.266-13.968,13.969-13.968c7.702,0,13.968,6.266,13.968,13.968S-65.35,18.271-73.052,18.271z"/>
		</g>
		<g>
			<polygon fill="#97BD40" points="-70.944,-24.519 -75.16,-24.519 -75.16,2.838 -70.944,2.838 			"/>
		</g>
		<g>
			<polygon fill="#97BD40" points="-71.675,-8.25 -73.783,-6.144 -66.081,1.559 -63.973,-0.547 			"/>
		</g>
		<g>
			<path fill="#4D4D4D" d="M223.973-21.254c0-1.854-1.503-3.357-3.357-3.357c-1.854,0-3.357,1.503-3.357,3.357
				s1.503,3.357,3.357,3.357C222.47-17.898,223.973-19.4,223.973-21.254z"/>
		</g>
	</g>
</symbol>
<g id="Guides">
</g>
<g id="Browser">
</g>
<g id="Home">
	<g>
		<g>
			<g>
				<g>
					<g>
						<circle fill="#4D4D4D" cx="183.435" cy="136.635" r="34.565"/>
						<circle fill="none" stroke="#97BD40" stroke-width="5" stroke-miterlimit="10" cx="183.435" cy="136.635" r="34.565"/>
					</g>
					<g>
						
							<line fill="none" stroke="#97BD40" stroke-width="5" stroke-linejoin="round" stroke-miterlimit="10" x1="183.5" y1="194" x2="183.5" y2="140"/>
					</g>
					<g>
						
							<line fill="none" stroke="#97BD40" stroke-width="5" stroke-linejoin="round" stroke-miterlimit="10" x1="199.689" y1="142.996" x2="184.063" y2="155.49"/>
					</g>
				</g>
				<g>
					<g>
						<circle fill="#4D4D4D" cx="57.216" cy="119.177" r="44.536"/>
						<circle fill="none" stroke="#97BD40" stroke-width="5" stroke-miterlimit="10" cx="57.216" cy="119.177" r="44.536"/>
					</g>
					<g>
						
							<line fill="none" stroke="#97BD40" stroke-width="5" stroke-linejoin="round" stroke-miterlimit="10" x1="57.5" y1="194" x2="57.5" y2="123"/>
					</g>
					<g>
						
							<line fill="none" stroke="#97BD40" stroke-width="5" stroke-linejoin="round" stroke-miterlimit="10" x1="37.083" y1="127.373" x2="57.216" y2="143.471"/>
					</g>
				</g>
				<g>
					<g>
						<circle fill="#4D4D4D" cx="124.775" cy="75.687" r="67.559"/>
						<circle fill="none" stroke="#97BD40" stroke-width="5" stroke-miterlimit="10" cx="124.775" cy="75.687" r="67.559"/>
					</g>
					<g>
						
							<line fill="none" stroke="#97BD40" stroke-width="5" stroke-linejoin="round" stroke-miterlimit="10" x1="124.5" y1="205" x2="124.5" y2="82"/>
					</g>
					<g>
						
							<line fill="none" stroke="#97BD40" stroke-width="5" stroke-linejoin="round" stroke-miterlimit="10" x1="94.235" y1="88.121" x2="124.775" y2="112.54"/>
					</g>
				</g>
				<g>
					<g>
						<path fill="#4D4D4D" d="M57.621,101.127c0.518,0.519,1.367,0.519,1.885,0l42.282-42.292c0.518-0.519,1.326-1.404,1.795-1.968
							c0,0,4.922-5.915,6.628-9.735c1.717-3.843,2.644-7.859,2.809-11.852c0.156-3.791-0.375-7.561-1.573-11.145
							c-0.973-2.912-2.385-5.701-4.225-8.278c-1.043-1.461-2.633-3.182-2.633-3.182c-0.498-0.539-1.341-1.391-1.875-1.894
							c0,0-0.719-0.678-1.61-1.392c-2.15-1.723-4.471-3.127-6.9-4.212c-3.489-1.559-7.2-2.459-10.946-2.701
							c-2.233-0.145-4.477-0.055-6.695,0.267c-2.323,0.338-4.617,0.933-6.834,1.784c-1.914,0.735-3.771,1.66-5.541,2.777
							c-1.301,0.82-2.555,1.743-3.752,2.77c-0.642,0.551-0.915,0.815-0.915,0.815c-0.527,0.51-1.397,0.517-1.933,0.016
							c0,0-1.283-1.2-2.492-2.11c-2.185-1.644-4.532-2.971-6.981-3.98c-4.313-1.778-8.938-2.57-13.529-2.377
							c-2.28,0.096-4.552,0.436-6.773,1.019c-1.259,0.33-2.501,0.739-3.72,1.225c-1.225,0.489-2.427,1.058-3.596,1.705
							c-1.073,0.594-2.12,1.255-3.133,1.983c-1.373,0.986-2.941,2.424-2.941,2.424c-0.54,0.496-1.388,1.344-1.883,1.884
							c0,0-1.815,1.981-2.928,3.593c-0.948,1.374-1.777,2.805-2.484,4.281c-0.786,1.64-1.422,3.336-1.905,5.068
							c-0.958,3.431-1.319,7.008-1.065,10.591c0.263,3.705,1.183,7.415,2.782,10.977c0.853,1.9,1.898,3.757,3.14,5.549
							c1.241,1.792,3.416,4.17,3.416,4.17c0.495,0.541,1.324,1.408,1.842,1.927L57.621,101.127z"/>
						<path fill="none" stroke="#FFFFFF" stroke-width="5" stroke-miterlimit="10" d="M57.621,101.127
							c0.518,0.519,1.367,0.519,1.885,0l42.282-42.292c0.518-0.519,1.326-1.404,1.795-1.968c0,0,4.922-5.915,6.628-9.735
							c1.717-3.843,2.644-7.859,2.809-11.852c0.156-3.791-0.375-7.561-1.573-11.145c-0.973-2.912-2.385-5.701-4.225-8.278
							c-1.043-1.461-2.633-3.182-2.633-3.182c-0.498-0.539-1.341-1.391-1.875-1.894c0,0-0.719-0.678-1.61-1.392
							c-2.15-1.723-4.471-3.127-6.9-4.212c-3.489-1.559-7.2-2.459-10.946-2.701c-2.233-0.145-4.477-0.055-6.695,0.267
							c-2.323,0.338-4.617,0.933-6.834,1.784c-1.914,0.735-3.771,1.66-5.541,2.777c-1.301,0.82-2.555,1.743-3.752,2.77
							c-0.642,0.551-0.915,0.815-0.915,0.815c-0.527,0.51-1.397,0.517-1.933,0.016c0,0-1.283-1.2-2.492-2.11
							c-2.185-1.644-4.532-2.971-6.981-3.98c-4.313-1.778-8.938-2.57-13.529-2.377c-2.28,0.096-4.552,0.436-6.773,1.019
							c-1.259,0.33-2.501,0.739-3.72,1.225c-1.225,0.489-2.427,1.058-3.596,1.705c-1.073,0.594-2.12,1.255-3.133,1.983
							c-1.373,0.986-2.941,2.424-2.941,2.424c-0.54,0.496-1.388,1.344-1.883,1.884c0,0-1.815,1.981-2.928,3.593
							c-0.948,1.374-1.777,2.805-2.484,4.281c-0.786,1.64-1.422,3.336-1.905,5.068c-0.958,3.431-1.319,7.008-1.065,10.591
							c0.263,3.705,1.183,7.415,2.782,10.977c0.853,1.9,1.898,3.757,3.14,5.549c1.241,1.792,3.416,4.17,3.416,4.17
							c0.495,0.541,1.324,1.408,1.842,1.927L57.621,101.127z"/>
					</g>
					<g>
						
							<path fill="none" stroke="#FFFFFF" stroke-width="5" stroke-linecap="round" stroke-linejoin="round" stroke-miterlimit="10" d="
							M35.584,14.018c-1.489,0.063-2.973,0.285-4.423,0.665c-0.822,0.216-1.633,0.482-2.429,0.8c-0.8,0.32-1.585,0.691-2.349,1.114
							c-0.701,0.388-1.384,0.82-2.046,1.295c-0.897,0.644-1.58,1.27-1.58,1.27c-0.54,0.496-1.388,1.344-1.883,1.884
							c0,0-0.873,0.953-1.6,2.005c-0.619,0.897-1.16,1.832-1.622,2.796c-0.513,1.071-0.928,2.178-1.244,3.31
							c-0.626,2.241-0.861,4.577-0.695,6.917c0.172,2.419,0.773,4.843,1.817,7.169c0.557,1.241,1.24,2.454,2.05,3.624
							c0.811,1.17,1.75,2.297,2.818,3.366"/>
					</g>
				</g>
			</g>
		</g>
	</g>
</g>
<g id="Landowners">
</g>
<g id="Principle">
</g>
<g id="Eligibility">
</g>
<g id="State2" display="none">
</g>
<g id="State3" display="none">
</g>
</svg>
